{
	"error_code": 0,
	"error_msg": "Servicio ejecutado con exito",
	"data": [
		{
			"last_update": "12-04-2020 00:56 AM",
			"people": "4116",
			"place": "86",
            "gender": [
				{
					"mujer": "1123",
					"hombre": "2993"
				}
			],
            "local": [
				{
					"name": "Ahuachapán",
					"place": "9"
                },
				{
					"name": "Santa Ana",
					"place": "8"
                },
				{
					"name": "Sonsonate",
					"place": "3"
                },
				{
					"name": "La Libertad",
					"place": "6"
                },
				{
					"name": "Chalatenango",
					"place": "1"
                },
				{
					"name": "Cuscatlán",
					"place": "0"
                },
				{
					"name": "San Salvador",
					"place": "47"
                },
				{
					"name": "La Paz",
					"place": "5"
                },
				{
					"name": "Cabañas",
					"place": "0"
                },
				{
					"name": "San Vicente",
					"place": "0"
                },
				{
					"name": "Usulután",
					"place": "2"
                },
				{
					"name": "San Miguel",
					"place": "3"
                },
				{
					"name": "Morazán",
					"place": "1"
                },
				{
					"name": "La Unión",
					"place": "1"
                }
			]
        }
	]
}
